{
  "project_info": {
    "project_number": "73622956355",
    "firebase_url": "https://ibghub-63be0.firebaseio.com",
    "project_id": "ibghub-63be0",
    "storage_bucket": "ibghub-63be0.appspot.com"
  },
  "client": [
    {
      "client_info": {
        "mobilesdk_app_id": "1:73622956355:android:74dd4b9d32fcb4b8",
        "android_client_info": {
          "package_name": "com.ibghub.search.listing"
        }
      },
      "oauth_client": [
        {
          "client_id": "73622956355-en49ifjats2m4fd70ft2nvlabc4qpijg.apps.googleusercontent.com",
          "client_type": 3
        }
      ],
      "api_key": [
        {
          "current_key": "AIzaSyC8Aj49ipD1r2YokcJE08zuGbwhMJ9xTFg"
        }
      ],
      "services": {
        "analytics_service": {
          "status": 1
        },
        "appinvite_service": {
          "status": 1,
          "other_platform_oauth_client": []
        },
        "ads_service": {
          "status": 2
        }
      }
    }
  ],
  "configuration_version": "1"
}